4
../test/testloop 100
../test/testloop 90
../test/testloop 80
../test/testloop 70
../test/testloop 60
../test/testloop 50
../test/testloop 40
../test/testloop 30
../test/testloop 20
../test/testloop 10
