2
../test/testloop2 70
../test/testloop2 70
../test/testloop2 70
../test/testloop2 70
../test/testloop2 70
../test/testloop2 70
../test/testloop2 70
../test/testloop2 70
../test/testloop2 70
../test/testloop2 70
